<?xml version="1.0" standalone="no"?>
<!DOCTYPE svg PUBLIC "-//W3C//DTD SVG 20010904//EN"
 "http://www.w3.org/TR/2001/REC-SVG-20010904/DTD/svg10.dtd">
<svg version="1.0" xmlns="http://www.w3.org/2000/svg"
 width="256.000000pt" height="256.000000pt" viewBox="0 0 256.000000 256.000000"
 preserveAspectRatio="xMidYMid meet">
<metadata>
Created by potrace 1.16, written by Peter Selinger 2001-2019
</metadata>
<g transform="translate(0.000000,256.000000) scale(0.100000,-0.100000)"
fill="#000000" stroke="none">
<path d="M5 2208 c-3 -7 -4 -429 -3 -938 l3 -925 1255 -3 c690 -1 1265 0 1278
3 l22 5 -2 933 -3 932 -1273 3 c-1013 2 -1274 0 -1277 -10z m2485 -928 l0
-870 -1210 0 -1210 0 0 870 0 870 1210 0 1210 0 0 -870z"/>
<path d="M142 2068 c-17 -17 -17 -1559 0 -1576 9 -9 276 -12 1139 -12 1012 0
1129 2 1143 16 14 14 16 99 16 784 0 685 -2 770 -16 784 -14 14 -131 16 -1143
16 -863 0 -1130 -3 -1139 -12z m358 -188 l0 -130 -150 0 -150 0 0 130 0 130
150 0 150 0 0 -130z m370 0 l0 -130 -150 0 -150 0 0 130 0 130 150 0 150 0 0
-130z m380 0 l0 -130 -155 0 -155 0 0 130 0 130 155 0 155 0 0 -130z m360 0
l0 -130 -145 0 -145 0 0 130 0 130 145 0 145 0 0 -130z m380 0 l0 -130 -155 0
-155 0 0 130 0 130 155 0 155 0 0 -130z m370 0 l0 -130 -150 0 -150 0 0 130 0
130 150 0 150 0 0 -130z m-1490 -765 l0 -565 -335 0 -335 0 0 565 0 565 335 0
335 0 0 -565z m750 0 l0 -565 -340 0 -340 0 0 565 0 565 340 0 340 0 0 -565z
m740 0 l0 -565 -340 0 -340 0 0 565 0 565 340 0 340 0 0 -565z"/>
</g>
</svg>
